<?xml version="1.0" encoding="UTF-8"?>
<svg width="598px" height="589px" viewBox="0 0 598 589" version="1.1" xmlns="http://www.w3.org/2000/svg" xmlns:xlink="http://www.w3.org/1999/xlink">
    <!-- Generator: sketchtool 54.1 (76490) - https://sketchapp.com -->
    <title>D79D7816-9615-4531-84A1-1F6225D0608A</title>
    <desc>Created with sketchtool.</desc>
    <defs>
        <linearGradient x1="50%" y1="0%" x2="50%" y2="100%" id="linearGradient-1">
            <stop stop-color="#232153" offset="0%"></stop>
            <stop stop-color="#6F2365" offset="100%"></stop>
        </linearGradient>
    </defs>
    <g id="Final" stroke="none" stroke-width="1" fill="none" fill-rule="evenodd" opacity="0.109999999">
        <g id="bg" transform="translate(-435.000000, -133.000000)" fill="url(#linearGradient-1)">
            <path d="M669.323966,743 C840.51815,743 978.036169,592.905395 978.036169,421.376977 C978.036169,325.096763 992.250724,224.960153 944.194558,168.312058 C906.636061,124.038504 864.652862,110 789.551285,110 C724.525822,110 632.709683,137.563261 587.77892,168.312058 C514.419326,218.516396 460,296.408914 460,402.784914 C460,574.313331 498.129783,743 669.323966,743 Z" id="Oval_3" transform="translate(720.000000, 426.500000) rotate(23.000000) translate(-720.000000, -426.500000) "></path>
        </g>
    </g>
</svg>