<?xml version="1.0" encoding="UTF-8"?>
<svg width="579px" height="579px" viewBox="0 0 579 579" version="1.1" xmlns="http://www.w3.org/2000/svg" xmlns:xlink="http://www.w3.org/1999/xlink">
    <!-- Generator: sketchtool 54.1 (76490) - https://sketchapp.com -->
    <title>B7CED483-84DB-4C69-B41B-0D463C915DF9</title>
    <desc>Created with sketchtool.</desc>
    <g id="Final" stroke="none" stroke-width="1" fill="#EC1D23" fill-rule="evenodd" opacity="0.200000003" stroke-opacity="0.5">
        <g id="bg" transform="translate(-437.000000, -138.000000)" stroke="#000000">
            <circle id="Oval_2" transform="translate(726.500000, 427.500000) rotate(23.000000) translate(-726.500000, -427.500000) " cx="726.5" cy="427.5" r="288"></circle>
        </g>
    </g>
</svg>